2018-05-17 17:31:45.954930: W tensorflow/core/platform/cpu_feature_guard.cc:45] The TensorFlow library wasn't compiled to use SSE4.1 instructions, but these are available on your machine and could speed up CPU computations.
2018-05-17 17:31:45.955019: W tensorflow/core/platform/cpu_feature_guard.cc:45] The TensorFlow library wasn't compiled to use SSE4.2 instructions, but these are available on your machine and could speed up CPU computations.
2018-05-17 17:31:45.955032: W tensorflow/core/platform/cpu_feature_guard.cc:45] The TensorFlow library wasn't compiled to use AVX instructions, but these are available on your machine and could speed up CPU computations.
2018-05-17 17:31:47.145930: I tensorflow/core/common_runtime/gpu/gpu_device.cc:955] Found device 0 with properties: 
name: TITAN Xp
major: 6 minor: 1 memoryClockRate (GHz) 1.582
pciBusID 0000:42:00.0
Total memory: 11.90GiB
Free memory: 11.74GiB
2018-05-17 17:31:47.146044: I tensorflow/core/common_runtime/gpu/gpu_device.cc:976] DMA: 0 
2018-05-17 17:31:47.146070: I tensorflow/core/common_runtime/gpu/gpu_device.cc:986] 0:   Y 
2018-05-17 17:31:47.146098: I tensorflow/core/common_runtime/gpu/gpu_device.cc:1045] Creating TensorFlow device (/gpu:0) -> (device: 0, name: TITAN Xp, pci bus id: 0000:42:00.0)

Loading X_total: Done

Loading y_total: Done
(64064, 224, 224, 3) int16
(64064,) int16
Zeros: 49372, Ones: 14692
Loading ResNet50 extracted features from ./resnet50features.npy ...
Fitting 3 folds for each of 10 candidates, totalling 30 fits
/usr/local/lib/python3.5/dist-packages/h5py/__init__.py:36: FutureWarning: Conversion of the second argument of issubdtype from `float` to `np.floating` is deprecated. In future, it will be treated as `np.float64 == np.dtype(float).type`.
  from ._conv import register_converters as _register_converters
Using TensorFlow backend.
[0] Test acurracy: 0.7707
Fitting 3 folds for each of 10 candidates, totalling 30 fits
[Parallel(n_jobs=3)]: Done  30 out of  30 | elapsed: 511.9min finished
[Parallel(n_jobs=3)]: Done  30 out of  30 | elapsed: 278.1min finished
[1] Test acurracy: 0.7707
'GridSearchCV' object has no attribute 'get_weights'

'GridSearchCV' object has no attribute 'get_weights'

("'GridSearchCV' object has no attribute 'get_weights'",)

Traceback (most recent call last):
  File "Resnet_Train_Imagenet.py", line 125, in <module>
    np.save("resnet_svm_trained_weights.npy", top_model.get_weights())
AttributeError: 'GridSearchCV' object has no attribute 'get_weights'

During handling of the above exception, another exception occurred:

Traceback (most recent call last):
  File "Resnet_Train_Imagenet.py", line 166, in <module>
    print(str(e), end="\n\n")
  File "/home/adriano/InicCientifica/Resnet/SendMail.py", line 9, in sendMail
    smtp.login(email, _decode('abc', 'w4PDg8OPw4bDi8OEwpLCksKTwpE='))
  File "/home/adriano/InicCientifica/Resnet/SendMail.py", line 26, in _decode
    enc = base64.urlsafe_b64decode(enc)
NameError: name 'base64' is not defined
swig/python detected a memory leak of type 'int64_t *', no destructor found.
swig/python detected a memory leak of type 'int64_t *', no destructor found.
