2018-08-22 16:31:46.820296: W tensorflow/core/platform/cpu_feature_guard.cc:45] The TensorFlow library wasn't compiled to use SSE4.1 instructions, but these are available on your machine and could speed up CPU computations.
2018-08-22 16:31:46.820365: W tensorflow/core/platform/cpu_feature_guard.cc:45] The TensorFlow library wasn't compiled to use SSE4.2 instructions, but these are available on your machine and could speed up CPU computations.
2018-08-22 16:31:46.820377: W tensorflow/core/platform/cpu_feature_guard.cc:45] The TensorFlow library wasn't compiled to use AVX instructions, but these are available on your machine and could speed up CPU computations.
2018-08-22 16:31:48.417439: I tensorflow/core/common_runtime/gpu/gpu_device.cc:955] Found device 0 with properties: 
name: TITAN Xp
major: 6 minor: 1 memoryClockRate (GHz) 1.582
pciBusID 0000:05:00.0
Total memory: 11.90GiB
Free memory: 11.74GiB
2018-08-22 16:31:48.417510: I tensorflow/core/common_runtime/gpu/gpu_device.cc:976] DMA: 0 
2018-08-22 16:31:48.417525: I tensorflow/core/common_runtime/gpu/gpu_device.cc:986] 0:   Y 
2018-08-22 16:31:48.417543: I tensorflow/core/common_runtime/gpu/gpu_device.cc:1045] Creating TensorFlow device (/gpu:0) -> (device: 0, name: TITAN Xp, pci bus id: 0000:05:00.0)
Using TensorFlow backend.

Loading X_total: Done

Loading y_total: Done

(79360, 224, 224, 3) int8
(79360,) int8

Zeros: 68567, Ones: 10793

Extracting features from ResNet50 layers ...

Saving ResNet50 extracted features into ./resnet50features.npy ...

[0] Test acurracy: 0.9820
[1] Test acurracy: 0.9842
[2] Test acurracy: 0.9835
[3] Test acurracy: 0.9848
[4] Test acurracy: 0.9831
Train 0: [0] Test acurracy: 0.9820
Train 0: [1] Test acurracy: 0.9842
Train 0: [2] Test acurracy: 0.9835
Train 0: [3] Test acurracy: 0.9848
Train 0: [4] Test acurracy: 0.9831
Average acurracy: 0.9835
Total Time (Train): 1h 47m 33s
swig/python detected a memory leak of type 'int64_t *', no destructor found.
swig/python detected a memory leak of type 'int64_t *', no destructor found.
