/home/adriano/InicCientifica/local/lib/python3.5/site-packages/h5py/__init__.py:36: FutureWarning: Conversion of the second argument of issubdtype from `float` to `np.floating` is deprecated. In future, it will be treated as `np.float64 == np.dtype(float).type`.
  from ._conv import register_converters as _register_converters
Using TensorFlow backend.
Traceback (most recent call last):
  File "/usr/lib/python3.5/tkinter/__init__.py", line 36, in <module>
    import _tkinter
ImportError: No module named '_tkinter'

During handling of the above exception, another exception occurred:

Traceback (most recent call last):
  File "Resnet_Train_Imagenet.py", line 16, in <module>
    from DataPlot import *
  File "/home/adriano/InicCientifica/Resnet/DataPlot.py", line 2, in <module>
    import seaborn as sns
  File "/home/adriano/InicCientifica/local/lib/python3.5/site-packages/seaborn/__init__.py", line 6, in <module>
    from .rcmod import *
  File "/home/adriano/InicCientifica/local/lib/python3.5/site-packages/seaborn/rcmod.py", line 8, in <module>
    from . import palettes, _orig_rc_params
  File "/home/adriano/InicCientifica/local/lib/python3.5/site-packages/seaborn/palettes.py", line 12, in <module>
    from .utils import desaturate, set_hls_values, get_color_cycle
  File "/home/adriano/InicCientifica/local/lib/python3.5/site-packages/seaborn/utils.py", line 11, in <module>
    import matplotlib.pyplot as plt
  File "/home/adriano/InicCientifica/local/lib/python3.5/site-packages/matplotlib/pyplot.py", line 115, in <module>
    _backend_mod, new_figure_manager, draw_if_interactive, _show = pylab_setup()
  File "/home/adriano/InicCientifica/local/lib/python3.5/site-packages/matplotlib/backends/__init__.py", line 62, in pylab_setup
    [backend_name], 0)
  File "/home/adriano/InicCientifica/local/lib/python3.5/site-packages/matplotlib/backends/backend_tkagg.py", line 4, in <module>
    from . import tkagg  # Paint image to Tk photo blitter extension.
  File "/home/adriano/InicCientifica/local/lib/python3.5/site-packages/matplotlib/backends/tkagg.py", line 5, in <module>
    from six.moves import tkinter as Tk
  File "/home/adriano/InicCientifica/local/lib/python3.5/site-packages/six.py", line 92, in __get__
    result = self._resolve()
  File "/home/adriano/InicCientifica/local/lib/python3.5/site-packages/six.py", line 115, in _resolve
    return _import_module(self.mod)
  File "/home/adriano/InicCientifica/local/lib/python3.5/site-packages/six.py", line 82, in _import_module
    __import__(name)
  File "/usr/lib/python3.5/tkinter/__init__.py", line 38, in <module>
    raise ImportError(str(msg) + ', please install the python3-tk package')
ImportError: No module named '_tkinter', please install the python3-tk package
